<?xml version="1.0" encoding="UTF-8"?>
<svg width="16px" height="62px" viewBox="0 0 16 62" version="1.1" xmlns="http://www.w3.org/2000/svg" xmlns:xlink="http://www.w3.org/1999/xlink">
    <!-- Generator: Sketch 50.2 (55047) - http://www.bohemiancoding.com/sketch -->
    <title>up-arrow</title>
    <desc>Created with Sketch.</desc>
    <defs></defs>
    <g id="Page-1" stroke="none" stroke-width="1" fill="none" fill-rule="evenodd">
        <g id="up-arrow" fill="#EC652F" fill-rule="nonzero">
            <polygon id="Combined-Shape" points="15.7200003 8.00229884 7.86000012 0.140000001 0 8.00229884 7.35581518 6.01965332 7.35581518 61.0233506 8.35549823 61.0163388 8.35548758 6.0178223"></polygon>
        </g>
    </g>
</svg>